[
  {
    "name": "Mr. Test One",
    "ssn": "01234567890",
    "productName": "Savings"
  },
  {
    "name": "Mr. Test Two",
    "ssn": "09876543210",
    "productName": "Current"
  }
]

//CustomStringField="09876543210"